c.m. Water1       -1.2098841881E+00    2.3545524692E+00   -4.8727047860E+00
           ux      1.8736700865E-01    1.5849629261E-01   -9.6941865533E-01
           uy      6.3687184845E-01    7.3176141344E-01    2.4273335668E-01
           uz      7.4785550257E-01   -6.6287567388E-01    3.6166120232E-02
Water1            -1.1172290246E+00    2.2724258368E+00   -4.8682240036E+00
           ux      1.8736700865E-01    1.5849629261E-01   -9.6941865533E-01
           uy      6.3687184845E-01    7.3176141344E-01    2.4273335668E-01
           uz      7.4785550257E-01   -6.6287567388E-01    3.6166120232E-02
O                 -1.1172290246E+00    2.2724258368E+00   -4.8682240036E+00
H2                -1.6771490669E+00    3.2329509966E+00   -6.2948014671E+00
           ux      7.0608491120E-01   -4.2718741071E-01   -5.6476102406E-01
           uy     -6.3687184845E-01   -7.3176141344E-01   -2.4273335668E-01
           uz     -3.0957769109E-01    5.3107075793E-01   -7.8874932853E-01
H1                -2.2131236146E+00    2.7795628609E+00   -3.5217213550E+00
           ux      4.7671798770E-01   -6.2121200066E-01    6.2196110042E-01
           uy      6.3687184845E-01    7.3176141344E-01    2.4273335668E-01
           uz     -6.0591600809E-01    2.8039415834E-01    7.4447626363E-01
CM                -1.2092090712E+00    2.3539540667E+00   -4.8726721375E+00
c.m. Water2       -4.3809266037E+00    3.1394422073E+00   -4.5182447115E-01
           ux      8.1427888433E-01   -3.9272857215E-01    4.2745077746E-01
           uy     -5.7599894396E-01   -6.3792602403E-01    5.1115125396E-01
           uz      7.1938272816E-02   -6.6243086921E-01   -7.4566093395E-01
Water2            -4.3720138493E+00    3.0573706837E+00   -5.4420773973E-01
           ux      8.1427888433E-01   -3.9272857215E-01    4.2745077746E-01
           uy     -5.7599894396E-01   -6.3792602403E-01    5.1115125396E-01
           uz      7.1938272816E-02   -6.6243086921E-01   -7.4566093395E-01
O                 -4.3720138493E+00    3.0573706837E+00   -5.4420773973E-01
H2                -3.2870057720E+00    3.2289975598E+00    8.9264436941E-01
           ux      5.5529175272E-01   -7.6422897324E-01   -3.2803223291E-01
           uy      5.7599894396E-01    6.3792602403E-01   -5.1115125396E-01
           uz      5.9989689608E-01    9.4891855979E-02    7.9443014151E-01
H1                -5.6162992794E+00    4.3524211569E+00   -3.3010417516E-01
           ux     -4.4151469641E-01   -2.8346693825E-01   -8.5129975201E-01
           uy     -5.7599894396E-01   -6.3792602403E-01    5.1115125396E-01
           uz     -6.8796074700E-01    7.1602854886E-01    1.1837705775E-01
CM                -4.3808616623E+00    3.1388442063E+00   -4.5249760700E-01
c.m. Water3       -1.2712199928E+00   -3.2301696436E+00   -4.0842149384E+00
           ux      3.9406069099E-01    6.1691573749E-01   -6.8127171132E-01
           uy      6.4260627978E-01    3.4501642030E-01    6.8412048567E-01
           uz      6.5709462104E-01   -7.0737447124E-01   -2.6047651802E-01
Water3            -1.1898096009E+00   -3.3178094310E+00   -4.1164865394E+00
           ux      3.9406069099E-01    6.1691573749E-01   -6.8127171132E-01
           uy      6.4260627978E-01    3.4501642030E-01    6.8412048567E-01
           uz      6.5709462104E-01   -7.0737447124E-01   -2.6047651802E-01
O                 -1.1898096009E+00   -3.3178094310E+00   -4.1164865394E+00
H2                -1.3536237242E+00   -1.6523541056E+00   -4.8025374033E+00
           ux      7.6082444965E-01   -1.8178786120E-01   -6.2297618762E-01
           uy     -6.4260627978E-01   -3.4501642030E-01   -6.8412048567E-01
           uz     -9.0572214294E-02    9.2082400232E-01   -3.7931494929E-01
H1                -2.4808579270E+00   -3.4170785134E+00   -2.8537188787E+00
           ux      2.7843169001E-01   -9.3699052890E-01    2.1100839497E-01
           uy      6.4260627978E-01    3.4501642030E-01    6.8412048567E-01
           uz     -7.1381577678E-01   -5.4885503301E-02    6.9817950295E-01
CM                -1.2706268091E+00   -3.2308082168E+00   -4.0844500803E+00
c.m. Water4        3.9993229564E+00    2.1866783988E+00   -2.7527425096E+00
           ux     -6.2779516438E-01    7.3552315658E-01   -2.5471340309E-01
           uy     -5.1098720952E-01   -1.4259256669E-01    8.4767884935E-01
           uz      5.8716718512E-01    6.6232397364E-01    4.6536184916E-01
Water4             4.0720697255E+00    2.2687366786E+00   -2.6950867484E+00
           ux     -6.2779516438E-01    7.3552315658E-01   -2.5471340309E-01
           uy     -5.1098720952E-01   -1.4259256669E-01    8.4767884935E-01
           uz      5.8716718512E-01    6.6232397364E-01    4.6536184916E-01
O                  4.0720697255E+00    2.2687366786E+00   -2.6950867484E+00
H2                 2.5241282667E+00    2.5875203580E+00   -3.5745732474E+00
           ux      8.0069298770E-02    9.7396189938E-01    2.1210168777E-01
           uy      5.1098720952E-01    1.4259256669E-01   -8.4767884935E-01
           uz     -8.5585102623E-01    1.7625430062E-01   -4.8626478632E-01
H1                 4.3199739267E+00    4.8351232568E-01   -2.8459503057E+00
           ux      8.4859010979E-01    7.3564946840E-02    5.2391127508E-01
           uy     -5.1098720952E-01   -1.4259256669E-01    8.4767884935E-01
           uz      1.3706530292E-01   -9.8704384833E-01   -8.3411894917E-02
CM                 3.9998530141E+00    2.1872763032E+00   -2.7523224101E+00
c.m. Water5       -1.4901856732E+00    3.3310886682E+00    3.9717050802E+00
           ux     -6.8399561980E-01   -6.5101800112E-01    3.2912847691E-01
           uy      9.2446841770E-02    3.7018302874E-01    9.2434739502E-01
           uz     -7.2360456988E-01    6.6267645759E-01   -1.9301901204E-01
Water5            -1.5798362802E+00    3.4131906188E+00    3.9477910914E+00
           ux     -6.8399561980E-01   -6.5101800112E-01    3.2912847691E-01
           uy      9.2446841770E-02    3.7018302874E-01    9.2434739502E-01
           uz     -7.2360456988E-01    6.6267645759E-01   -1.9301901204E-01
O                 -1.5798362802E+00    3.4131906188E+00    3.9477910914E+00
H2                -1.7570809747E+00    1.7484420801E+00    4.6322170678E+00
           ux     -9.9088343805E-01    1.2556754369E-01    4.8813975153E-02
           uy     -9.2446841770E-02   -3.7018302874E-01   -9.2434739502E-01
           uz     -9.7997926744E-02   -9.2043322256E-01    3.7841655507E-01
H1                 1.9952945320E-01    3.6107180552E+00    3.6907253515E+00
           ux     -1.5356435965E-01    9.2251678861E-01   -3.5409146018E-01
           uy      9.2446841770E-02    3.7018302874E-01    9.2434739502E-01
           uz      9.8380463960E-01    1.0921217862E-01   -1.4213068335E-01
CM                -1.4908388980E+00    3.3316868909E+00    3.9715308348E+00
c.m. Water6        3.8575316992E+00    2.8831668570E+00    2.5273349791E+00
           ux      4.9633527423E-01    4.1411863485E-01    7.6299217022E-01
           uy     -6.3010608027E-01    7.7642364654E-01   -1.1517321892E-02
           uz     -5.9717470070E-01   -4.7504955254E-01    6.4630511330E-01
Water6             3.7835450543E+00    2.8243108430E+00    2.6074086106E+00
           ux      4.9633527423E-01    4.1411863485E-01    7.6299217022E-01
           uy     -6.3010608027E-01    7.7642364654E-01   -1.1517321892E-02
           uz     -5.9717470070E-01   -4.7504955254E-01    6.4630511330E-01
O                  3.7835450543E+00    2.8243108430E+00    2.6074086106E+00
H2                 5.1545408075E+00    3.9425161400E+00    2.9832142176E+00
           ux     -1.6844707971E-01   -1.2219405107E-01    9.7810745587E-01
           uy      6.3010608027E-01   -7.7642364654E-01    1.1517321892E-02
           uz      7.5801840937E-01    6.1825151434E-01    2.0778151043E-01
H1                 3.7347440351E+00    2.7579049877E+00    8.0062942687E-01
           ux     -7.7604014371E-01   -6.2914091396E-01    4.4084075733E-02
           uy     -6.3010608027E-01    7.7642364654E-01   -1.1517321892E-02
           uz     -2.6981900414E-02   -3.6715548299E-02   -9.9896143347E-01
CM                 3.8569926074E+00    2.8827380121E+00    2.5279184228E+00
c.m. Water7       -1.7307167156E+00   -2.1537127921E+00    4.6139122473E+00
           ux      6.6418547529E-01    2.2645412824E-01   -7.1244380987E-01
           uy     -3.3110087538E-01   -7.6533376363E-01   -5.5193880148E-01
           uz     -6.7024612251E-01    6.0248050429E-01   -4.3334440946E-01
Water7            -1.8137565058E+00   -2.0790687874E+00    4.5602232699E+00
           ux      6.6418547529E-01    2.2645412824E-01   -7.1244380987E-01
           uy     -3.3110087538E-01   -7.6533376363E-01   -5.5193880148E-01
           uz     -6.7024612251E-01    6.0248050429E-01   -4.3334440946E-01
O                 -1.8137565058E+00   -2.0790687874E+00    4.5602232699E+00
H2                -1.2179485737E-01   -2.4221471040E+00    4.0209595638E+00
           ux     -1.2349406960E-01    6.1504729952E-01   -7.7875929152E-01
           uy      3.3110087538E-01    7.6533376363E-01    5.5193880148E-01
           uz      9.3547924889E-01   -1.8968671437E-01   -2.9815688034E-01
H1                -2.0217371807E+00   -3.0699326978E+00    6.0589477429E+00
           ux     -9.3656239045E-01    3.3783154481E-01    9.3384881666E-02
           uy     -3.3110087538E-01   -7.6533376363E-01   -5.5193880148E-01
           uz     -1.1499173499E-01   -5.4784493936E-01    8.2863913937E-01
CM                -1.7313217717E+00   -2.1531689105E+00    4.6135210511E+00
c.m. Water8       -4.8440137493E+00   -2.4672850819E+00   -4.3379094482E-02
           ux     -4.0237738734E-01    6.8690463844E-01   -6.0518960322E-01
           uy      8.8880805579E-01    1.3472985789E-01   -4.3802751667E-01
           uz     -2.1934602373E-01   -7.1414976236E-01   -6.6473862442E-01
Water8            -4.8711895093E+00   -2.5557642905E+00   -1.2573653616E-01
           ux     -4.0237738734E-01    6.8690463844E-01   -6.0518960322E-01
           uy      8.8880805579E-01    1.3472985789E-01   -4.3802751667E-01
           uz     -2.1934602373E-01   -7.1414976236E-01   -6.6473862442E-01
O                 -4.8711895093E+00   -2.5557642905E+00   -1.2573653616E-01
H2                -5.2038765935E+00   -7.8270471338E-01   -2.5543362936E-01
           ux     -4.1974490619E-01   -1.4430698176E-01   -8.9609693044E-01
           uy     -8.8880805579E-01   -1.3472985789E-01    4.3802751667E-01
           uz     -1.8394144095E-01    9.8031798943E-01   -7.1709036337E-02
H1                -4.0528519828E+00   -2.7476365633E+00    1.4757474692E+00
           ux      7.2828808303E-02   -9.8518716018E-01   -1.5524891013E-01
           uy      8.8880805579E-01    1.3472985789E-01   -4.3802751667E-01
           uz      4.5245574883E-01   -1.0608545994E-01    8.8545449942E-01
CM                -4.8442117611E+00   -2.4679297714E+00   -4.3979178756E-02
c.m. Water9        3.4049599102E+00   -2.6148299598E+00    3.2900490973E+00
           ux      9.6057312722E-02    7.9574817651E-01    5.9796139696E-01
           uy     -9.1497248223E-01    3.0712276054E-01   -2.6172689340E-01
           uz     -3.9191625310E-01   -5.2197744161E-01    7.5758907134E-01
Water9             3.3564036525E+00   -2.6795000799E+00    3.3839101962E+00
           ux      9.6057312722E-02    7.9574817651E-01    5.9796139696E-01
           uy     -9.1497248223E-01    3.0712276054E-01   -2.6172689340E-01
           uz     -3.9191625310E-01   -5.2197744161E-01    7.5758907134E-01
O                  3.3564036525E+00   -2.6795000799E+00    3.3839101962E+00
H2                 3.9276601817E+00   -9.6350656931E-01    3.4004796033E+00
           ux     -2.5113127766E-01    7.4283073565E-02    9.6509849568E-01
           uy      9.1497248223E-01   -3.0712276054E-01    2.6172689340E-01
           uz      3.1584559226E-01    9.4876637532E-01    9.1611630455E-03
H1                 3.6528824868E+00   -3.2397918774E+00    1.6899752215E+00
           ux     -3.6872065724E-01   -8.9983885135E-01    2.3309894578E-01
           uy     -9.1497248223E-01    3.0712276054E-01   -2.6172689340E-01
           uz      1.6392203542E-01   -3.0978323317E-01   -9.3657029354E-01
CM                 3.4046061128E+00   -2.6153011682E+00    3.2907330011E+00
c.m. Water10       3.6690348931E+00   -3.3085439179E+00   -2.2107218213E+00
           ux      8.9821719633E-01   -4.1385596252E-01   -1.4808480851E-01
           uy      1.6840679228E-01    6.3521032504E-01   -7.5375526219E-01
           uz      4.0601110889E-01    6.5209745073E-01    6.4025299235E-01
Water10            3.7193374255E+00   -3.2277526478E+00   -2.1313980141E+00
           ux      8.9821719633E-01   -4.1385596252E-01   -1.4808480851E-01
           uy      1.6840679228E-01    6.3521032504E-01   -7.5375526219E-01
           uz      4.0601110889E-01    6.5209745073E-01    6.4025299235E-01
O                  3.7193374255E+00   -3.2277526478E+00   -2.1313980141E+00
H2                 4.5545681865E+00   -4.5415816772E+00   -3.0519875826E+00
           ux      8.7085225410E-01    2.6236367032E-01    4.1567012886E-01
           uy     -1.6840679228E-01   -6.3521032504E-01    7.5375526219E-01
           uz      4.6179595477E-01   -7.2641114217E-01   -5.0899051926E-01
H1                 1.9851641114E+00   -3.3577219148E+00   -2.6283821206E+00
           ux     -2.2870799638E-01    7.6898898062E-01    5.9694941165E-01
           uy      1.6840679228E-01    6.3521032504E-01   -7.5375526219E-01
           uz     -9.5881792052E-01   -7.1859520209E-02   -2.7478064825E-01
CM                 3.6694014144E+00   -3.3079552453E+00   -2.2101438412E+00
