                        ORIENT version 4.1   January 2000
                                       by
                                  Anthony Stone
                             with contributions from
          Andreas Dullweber, Ola Engkvist, Elena Fraschini, Matt Hodges,
                  Andy Meredith, Paul Popelier and David Wales

Parameters for this version:
Maximum rank of multipole moments:            5
Maximum rank of polarizabilities:             2
Maximum number of site types:                20

Values of settable parameters:
Maximum number of molecules:                 10
Maximum number of sites:                    100
Maximum number of polarizable sites:          0
Maximum number of geometrical parameters:  1500
Maximum number of S functions:              400


Variables:
    1  x1 = -2.77399 B       2  y1 = -2.63332 B       3  z1 = 13.0816 B
    4  alpha1 = 2.44465 D    5  beta1 = -0.16666 D    6  gamma1 = -1.90625 D
    7  x2 = 2.67402 B        8  y2 = 2.62358 B        9  z2 = 7.85091 B
   10  alpha2 = -0.32941 D
                            11  beta2 = 0.22518 D    12  gamma2 = 0.52475 D
   13  x3 = -2.68886 B      14  y3 = -2.56972 B      15  z3 = 23.4624 B
   16  alpha3 = 80.2562 D   17  beta3 = -12.8693 D   18  gamma3 = -78.1021 D
   19  x4 = 2.72332 B       20  y4 = 2.66844 B       21  z4 = 18.2972 B
   22  alpha4 = -82.4348 D
                            23  beta4 = -7.96254 D   24  gamma4 = 82.7164 D

Molecule  1 (Site   1):  urea1               
Origin position (cartesian) x1 y1 z1
Euler angles alpha1 beta1 gamma1     

Site   2:  C                   Type C                   
Position (cartesian) -0.10287 0.0 1.0E-05
Euler angles 90.0000 45.0000 90.0000     
Charge           1.14273
Dipole           0.00000   0.16357   0.00000
Quadrupole      -0.11566   0.00000   0.00000   0.21349   0.00000
Octopole         0.00000  -0.45204   0.00000   0.00000   0.00000
                          -1.75509   0.00000
Hexadecapole     0.28889   0.00000   0.00000   0.01104   0.00000
                           0.00000   0.00000  -0.55776   0.00000

Site   3:  O                   Type O                   
Position (cartesian) -2.48652 0.0 1.0E-05
Euler angles 90.0000 45.0000 90.0000     
Charge          -0.94259
Dipole           0.00000   0.39597   0.00000
Quadrupole       0.33067   0.00000   0.00000   0.31242   0.00000
Octopole         0.00000  -0.06257   0.00000   0.00000   0.00000
                          -0.55278   0.00000
Hexadecapole     0.03419   0.00000   0.00000  -0.61270   0.00000
                           0.00000   0.00000   1.06204   0.00000

Site   4:  N                   Type N                   
Position (cartesian) 1.21952 -1.53429 1.53430
Euler angles 90.0000 45.0000 90.0000     
Charge          -0.70284
Dipole           0.00000   0.09709   0.02155
Quadrupole      -0.40912   0.00000   0.00000   0.22601  -0.05307
Octopole         0.00000  -0.08459  -0.08079   0.00000   0.00000
                           2.05335  -0.30677
Hexadecapole    -0.89791   0.00000   0.00000  -0.36362  -0.27773
                           0.00000   0.00000   0.01663  -1.22031

Site   5:  H                   Type H                   
Position (cartesian) 0.28039 -2.70789 2.70790
Euler angles 90.0000 45.0000 90.0000     
Charge           0.31908
Dipole           0.00000   0.06025   0.09786
Quadrupole       0.00151   0.00000   0.00000   0.00889  -0.01888
Octopole         0.00000   0.00370   0.00895   0.00000   0.00000
                          -0.00328  -0.00030
Hexadecapole     0.00874   0.00000   0.00000   0.00516  -0.00654
                           0.00000   0.00000  -0.00292  -0.00031

Site   6:  H                   Type H                   
Position (cartesian) 3.11900 -1.51536 1.51537
Euler angles 90.0000 45.0000 90.0000     
Charge           0.28369
Dipole           0.00000  -0.10795   0.00101
Quadrupole       0.00137   0.00000   0.00000  -0.01580   0.00080
Octopole         0.00000  -0.01023  -0.00301   0.00000   0.00000
                          -0.00178  -0.00193
Hexadecapole     0.00405   0.00000   0.00000  -0.01556   0.00002
                           0.00000   0.00000  -0.00639   0.00333

Site   7:  N                   Type N                   
Position (cartesian) 1.21952 1.53430 -1.53430
Euler angles 90.0000 45.0000 90.0000     
Charge          -0.70284
Dipole           0.00000   0.09709  -0.02155
Quadrupole      -0.40912   0.00000   0.00000   0.22601   0.05307
Octopole         0.00000  -0.08459   0.08079   0.00000   0.00000
                           2.05335   0.30677
Hexadecapole    -0.89791   0.00000   0.00000  -0.36362   0.27773
                           0.00000   0.00000   0.01663   1.22031

Site   8:  H                   Type H                   
Position (cartesian) 0.28039 2.70790 -2.70790
Euler angles 90.0000 45.0000 90.0000     
Charge           0.31908
Dipole           0.00000   0.06025  -0.09786
Quadrupole       0.00151   0.00000   0.00000   0.00889   0.01888
Octopole         0.00000   0.00370  -0.00895   0.00000   0.00000
                          -0.00328   0.00030
Hexadecapole     0.00874   0.00000   0.00000   0.00516   0.00654
                           0.00000   0.00000  -0.00292   0.00031

Site   9:  H                   Type H                   
Position (cartesian) 3.11900 1.51537 -1.51537
Euler angles 90.0000 45.0000 90.0000     
Charge           0.28369
Dipole           0.00000  -0.10795  -0.00101
Quadrupole       0.00137   0.00000   0.00000  -0.01580  -0.00080
Octopole         0.00000  -0.01023   0.00301   0.00000   0.00000
                          -0.00178   0.00193
Hexadecapole     0.00405   0.00000   0.00000  -0.01556  -0.00002
                           0.00000   0.00000  -0.00639  -0.00333

Molecule  2 (Site  10):  urea2               
Origin position (cartesian) x2 y2 z2
Euler angles alpha2 beta2 gamma2     

Site  11:  C                   Type C                   
Position (cartesian) 0.10288 1.0E-05 0.0
Euler angles -90.0000 45.0000 90.0000     
Charge           1.14273
Dipole           0.00000   0.16357   0.00000
Quadrupole      -0.11566   0.00000   0.00000   0.21349   0.00000
Octopole         0.00000  -0.45204   0.00000   0.00000   0.00000
                          -1.75509   0.00000
Hexadecapole     0.28889   0.00000   0.00000   0.01104   0.00000
                           0.00000   0.00000  -0.55776   0.00000

Site  12:  O                   Type O                   
Position (cartesian) 2.48652 1.0E-05 0.0
Euler angles -90.0000 45.0000 90.0000     
Charge          -0.94259
Dipole           0.00000   0.39597   0.00000
Quadrupole       0.33067   0.00000   0.00000   0.31242   0.00000
Octopole         0.00000  -0.06257   0.00000   0.00000   0.00000
                          -0.55278   0.00000
Hexadecapole     0.03419   0.00000   0.00000  -0.61270   0.00000
                           0.00000   0.00000   1.06204   0.00000

Site  13:  N                   Type N                   
Position (cartesian) -1.21952 1.53429 1.53429
Euler angles -90.0000 45.0000 90.0000     
Charge          -0.70284
Dipole           0.00000   0.09709   0.02155
Quadrupole      -0.40912   0.00000   0.00000   0.22601  -0.05307
Octopole         0.00000  -0.08459  -0.08079   0.00000   0.00000
                           2.05335  -0.30677
Hexadecapole    -0.89791   0.00000   0.00000  -0.36362  -0.27773
                           0.00000   0.00000   0.01663  -1.22031

Site  14:  H                   Type H                   
Position (cartesian) -0.28039 2.70790 2.70790
Euler angles -90.0000 45.0000 90.0000     
Charge           0.31908
Dipole           0.00000   0.06025   0.09786
Quadrupole       0.00151   0.00000   0.00000   0.00889  -0.01888
Octopole         0.00000   0.00370   0.00895   0.00000   0.00000
                          -0.00328  -0.00030
Hexadecapole     0.00874   0.00000   0.00000   0.00516  -0.00654
                           0.00000   0.00000  -0.00292  -0.00031

Site  15:  H                   Type H                   
Position (cartesian) -3.11901 1.51536 1.51536
Euler angles -90.0000 45.0000 90.0000     
Charge           0.28369
Dipole           0.00000  -0.10795   0.00101
Quadrupole       0.00137   0.00000   0.00000  -0.01580   0.00080
Octopole         0.00000  -0.01023  -0.00301   0.00000   0.00000
                          -0.00178  -0.00193
Hexadecapole     0.00405   0.00000   0.00000  -0.01556   0.00002
                           0.00000   0.00000  -0.00639   0.00333

Site  16:  N                   Type N                   
Position (cartesian) -1.21952 -1.53430 -1.53429
Euler angles -90.0000 45.0000 90.0000     
Charge          -0.70284
Dipole           0.00000   0.09709  -0.02155
Quadrupole      -0.40912   0.00000   0.00000   0.22601   0.05307
Octopole         0.00000  -0.08459   0.08079   0.00000   0.00000
                           2.05335   0.30677
Hexadecapole    -0.89791   0.00000   0.00000  -0.36362   0.27773
                           0.00000   0.00000   0.01663   1.22031

Site  17:  H                   Type H                   
Position (cartesian) -0.28039 -2.70790 -2.70790
Euler angles -90.0000 45.0000 90.0000     
Charge           0.31908
Dipole           0.00000   0.06025  -0.09786
Quadrupole       0.00151   0.00000   0.00000   0.00889   0.01888
Octopole         0.00000   0.00370  -0.00895   0.00000   0.00000
                          -0.00328   0.00030
Hexadecapole     0.00874   0.00000   0.00000   0.00516   0.00654
                           0.00000   0.00000  -0.00292   0.00031

Site  18:  H                   Type H                   
Position (cartesian) -3.11901 -1.51537 -1.51536
Euler angles -90.0000 45.0000 90.0000     
Charge           0.28369
Dipole           0.00000  -0.10795  -0.00101
Quadrupole       0.00137   0.00000   0.00000  -0.01580  -0.00080
Octopole         0.00000  -0.01023   0.00301   0.00000   0.00000
                          -0.00178   0.00193
Hexadecapole     0.00405   0.00000   0.00000  -0.01556  -0.00002
                           0.00000   0.00000  -0.00639  -0.00333

Monolayer lattice vectors: (  bohr  )
    a =    8.8514305   0.0000000
    b =    0.0000000  10.5162700
Summation ranges:   Direct space 6   Reciprocal space 6

Crystal lattice
Range of lattice sums in reciprocal space:  6
Range of lattice sums in real space:  6
Lattice vector a: a_x =  8.8514  bohr  a_y =  0.0000  bohr  
Lattice vector b: b_x =  0.0000  bohr  b_y = 10.5163  bohr  
Lattice vector c: c_x =  0.0000  bohr  c_y =  0.0000  bohr  c_z = 10.5163  bohr  

 site  37:  C                   type C                   
Position (cartesian) -2.88548 -2.62907 2.62900
 Charge           1.14273
 Dipole           0.00000   0.16357   0.00000
 Quadrupole      -0.11566   0.00000   0.00000   0.21349   0.00000
 Octopole         0.00000  -0.45204   0.00000   0.00000   0.00000
                           -1.75509   0.00000
 Hexadecapole     0.28889   0.00000   0.00000   0.01104   0.00000
                            0.00000   0.00000  -0.55776   0.00000

 site  38:  O                   type O                   
Position (cartesian) -5.26913 -2.62907 2.62900
 Charge          -0.94259
 Dipole           0.00000   0.39597   0.00000
 Quadrupole       0.33067   0.00000   0.00000   0.31242   0.00000
 Octopole         0.00000  -0.06257   0.00000   0.00000   0.00000
                           -0.55278   0.00000
 Hexadecapole     0.03419   0.00000   0.00000  -0.61270   0.00000
                            0.00000   0.00000   1.06204   0.00000

 site  39:  N                   type N                   
Position (cartesian) -1.56309 -4.16336 4.16329
 Charge          -0.70284
 Dipole           0.00000   0.09709   0.02155
 Quadrupole      -0.40912   0.00000   0.00000   0.22601  -0.05307
 Octopole         0.00000  -0.08459  -0.08079   0.00000   0.00000
                            2.05335  -0.30677
 Hexadecapole    -0.89791   0.00000   0.00000  -0.36362  -0.27773
                            0.00000   0.00000   0.01663  -1.22031

 site  40:  H                   type H                   
Position (cartesian) -2.50222 -5.33696 5.33689
 Charge           0.31908
 Dipole           0.00000   0.06025   0.09786
 Quadrupole       0.00151   0.00000   0.00000   0.00889  -0.01888
 Octopole         0.00000   0.00370   0.00895   0.00000   0.00000
                           -0.00328  -0.00030
 Hexadecapole     0.00874   0.00000   0.00000   0.00516  -0.00654
                            0.00000   0.00000  -0.00292  -0.00031

 site  41:  H                   type H                   
Position (cartesian) 0.33639 -4.14443 4.14436
 Charge           0.28369
 Dipole           0.00000  -0.10795   0.00101
 Quadrupole       0.00137   0.00000   0.00000  -0.01580   0.00080
 Octopole         0.00000  -0.01023  -0.00301   0.00000   0.00000
                           -0.00178  -0.00193
 Hexadecapole     0.00405   0.00000   0.00000  -0.01556   0.00002
                            0.00000   0.00000  -0.00639   0.00333

 site  42:  N                   type N                   
Position (cartesian) -1.56309 -1.09477 1.09469
 Charge          -0.70284
 Dipole           0.00000   0.09709  -0.02155
 Quadrupole      -0.40912   0.00000   0.00000   0.22601   0.05307
 Octopole         0.00000  -0.08459   0.08079   0.00000   0.00000
                            2.05335   0.30677
 Hexadecapole    -0.89791   0.00000   0.00000  -0.36362   0.27773
                            0.00000   0.00000   0.01663   1.22031

 site  43:  H                   type H                   
Position (cartesian) -2.50222 0.07883 -0.07891
 Charge           0.31908
 Dipole           0.00000   0.06025  -0.09786
 Quadrupole       0.00151   0.00000   0.00000   0.00889   0.01888
 Octopole         0.00000   0.00370  -0.00895   0.00000   0.00000
                           -0.00328   0.00030
 Hexadecapole     0.00874   0.00000   0.00000   0.00516   0.00654
                            0.00000   0.00000  -0.00292   0.00031

 site  44:  H                   type H                   
Position (cartesian) 0.33639 -1.11370 1.11362
 Charge           0.28369
 Dipole           0.00000  -0.10795  -0.00101
 Quadrupole       0.00137   0.00000   0.00000  -0.01580  -0.00080
 Octopole         0.00000  -0.01023   0.00301   0.00000   0.00000
                           -0.00178   0.00193
 Hexadecapole     0.00405   0.00000   0.00000  -0.01556  -0.00002
                            0.00000   0.00000  -0.00639  -0.00333

 site  45:  C                   type C                   
Position (cartesian) 2.88558 2.62900 -2.62907
 Charge           1.14273
 Dipole           0.00000   0.16357   0.00000
 Quadrupole      -0.11566   0.00000   0.00000   0.21349   0.00000
 Octopole         0.00000  -0.45204   0.00000   0.00000   0.00000
                           -1.75509   0.00000
 Hexadecapole     0.28889   0.00000   0.00000   0.01104   0.00000
                            0.00000   0.00000  -0.55776   0.00000

 site  46:  O                   type O                   
Position (cartesian) 5.26922 2.62900 -2.62907
 Charge          -0.94259
 Dipole           0.00000   0.39597   0.00000
 Quadrupole       0.33067   0.00000   0.00000   0.31242   0.00000
 Octopole         0.00000  -0.06257   0.00000   0.00000   0.00000
                           -0.55278   0.00000
 Hexadecapole     0.03419   0.00000   0.00000  -0.61270   0.00000
                            0.00000   0.00000   1.06204   0.00000

 site  47:  N                   type N                   
Position (cartesian) 1.56318 4.16328 -1.09478
 Charge          -0.70284
 Dipole           0.00000   0.09709   0.02155
 Quadrupole      -0.40912   0.00000   0.00000   0.22601  -0.05307
 Octopole         0.00000  -0.08459  -0.08079   0.00000   0.00000
                            2.05335  -0.30677
 Hexadecapole    -0.89791   0.00000   0.00000  -0.36362  -0.27773
                            0.00000   0.00000   0.01663  -1.22031

 site  48:  H                   type H                   
Position (cartesian) 2.50231 5.33689 0.07883
 Charge           0.31908
 Dipole           0.00000   0.06025   0.09786
 Quadrupole       0.00151   0.00000   0.00000   0.00889  -0.01888
 Octopole         0.00000   0.00370   0.00895   0.00000   0.00000
                           -0.00328  -0.00030
 Hexadecapole     0.00874   0.00000   0.00000   0.00516  -0.00654
                            0.00000   0.00000  -0.00292  -0.00031

 site  49:  H                   type H                   
Position (cartesian) -0.33631 4.14435 -1.11371
 Charge           0.28369
 Dipole           0.00000  -0.10795   0.00101
 Quadrupole       0.00137   0.00000   0.00000  -0.01580   0.00080
 Octopole         0.00000  -0.01023  -0.00301   0.00000   0.00000
                           -0.00178  -0.00193
 Hexadecapole     0.00405   0.00000   0.00000  -0.01556   0.00002
                            0.00000   0.00000  -0.00639   0.00333

 site  50:  N                   type N                   
Position (cartesian) 1.56318 1.09469 -4.16336
 Charge          -0.70284
 Dipole           0.00000   0.09709  -0.02155
 Quadrupole      -0.40912   0.00000   0.00000   0.22601   0.05307
 Octopole         0.00000  -0.08459   0.08079   0.00000   0.00000
                            2.05335   0.30677
 Hexadecapole    -0.89791   0.00000   0.00000  -0.36362   0.27773
                            0.00000   0.00000   0.01663   1.22031

 site  51:  H                   type H                   
Position (cartesian) 2.50231 -0.07891 -5.33697
 Charge           0.31908
 Dipole           0.00000   0.06025  -0.09786
 Quadrupole       0.00151   0.00000   0.00000   0.00889   0.01888
 Octopole         0.00000   0.00370  -0.00895   0.00000   0.00000
                           -0.00328   0.00030
 Hexadecapole     0.00874   0.00000   0.00000   0.00516   0.00654
                            0.00000   0.00000  -0.00292   0.00031

 site  52:  H                   type H                   
Position (cartesian) -0.33631 1.11362 -4.14443
 Charge           0.28369
 Dipole           0.00000  -0.10795  -0.00101
 Quadrupole       0.00137   0.00000   0.00000  -0.01580  -0.00080
 Octopole         0.00000  -0.01023   0.00301   0.00000   0.00000
                           -0.00178   0.00193
 Hexadecapole     0.00405   0.00000   0.00000  -0.01556  -0.00002
                            0.00000   0.00000  -0.00639  -0.00333

Pair potentials
Types:   H                   H                   
Pre-exponential factor:  3.6749E-02     Damping type 0  Scale factor  1.00    
Index t1  t2   j      rho        alpha        C6  etc.
   1  00  00   0    0.848400    4.660000  0.2228    
Types:   H                   C                   
Pre-exponential factor:  3.6749E-02     Damping type 0  Scale factor  1.00    
Index t1  t2   j      rho        alpha        C6  etc.
   1  00  00   0    1.477600    4.130000   2.374    
Types:   H                   N                   
Pre-exponential factor:  3.6749E-02     Damping type 0  Scale factor  1.00    
Index t1  t2   j      rho        alpha        C6  etc.
   1  00  00   0    1.401800    4.220000   1.784    
Types:   H                   O                   
Pre-exponential factor:  3.6749E-02     Damping type 0  Scale factor  1.00    
Index t1  t2   j      rho        alpha        C6  etc.
   1  00  00   0    1.360800    4.310000   1.611    
Types:   C                   H                   
Pre-exponential factor:  3.6749E-02     Damping type 0  Scale factor  1.00    
Index t1  t2   j      rho        alpha        C6  etc.
   1  00  00   0    1.477600    4.130000   2.374    
Types:   C                   C                   
Pre-exponential factor:  3.6749E-02     Damping type 0  Scale factor  1.00    
Index t1  t2   j      rho        alpha        C6  etc.
   1  00  00   0    2.292000    3.600000   25.29    
Types:   C                   N                   
Pre-exponential factor:  3.6749E-02     Damping type 0  Scale factor  1.00    
Index t1  t2   j      rho        alpha        C6  etc.
   1  00  00   0    2.185500    3.690000   19.01    
Types:   C                   O                   
Pre-exponential factor:  3.6749E-02     Damping type 0  Scale factor  1.00    
Index t1  t2   j      rho        alpha        C6  etc.
   1  00  00   0    2.120100    3.780000   17.16    
Types:   N                   H                   
Pre-exponential factor:  3.6749E-02     Damping type 0  Scale factor  1.00    
Index t1  t2   j      rho        alpha        C6  etc.
   1  00  00   0    1.401800    4.220000   1.784    
Types:   N                   C                   
Pre-exponential factor:  3.6749E-02     Damping type 0  Scale factor  1.00    
Index t1  t2   j      rho        alpha        C6  etc.
   1  00  00   0    2.185500    3.690000   19.01    
Types:   N                   N                   
Pre-exponential factor:  3.6749E-02     Damping type 0  Scale factor  1.00    
Index t1  t2   j      rho        alpha        C6  etc.
   1  00  00   0    2.084100    3.780000   14.29    
Types:   N                   O                   
Pre-exponential factor:  3.6749E-02     Damping type 0  Scale factor  1.00    
Index t1  t2   j      rho        alpha        C6  etc.
   1  00  00   0    2.022500    3.870000   12.90    
Types:   O                   H                   
Pre-exponential factor:  3.6749E-02     Damping type 0  Scale factor  1.00    
Index t1  t2   j      rho        alpha        C6  etc.
   1  00  00   0    1.360800    4.310000   1.611    
Types:   O                   C                   
Pre-exponential factor:  3.6749E-02     Damping type 0  Scale factor  1.00    
Index t1  t2   j      rho        alpha        C6  etc.
   1  00  00   0    2.120100    3.780000   17.16    
Types:   O                   N                   
Pre-exponential factor:  3.6749E-02     Damping type 0  Scale factor  1.00    
Index t1  t2   j      rho        alpha        C6  etc.
   1  00  00   0    2.022500    3.870000   12.90    
Types:   O                   O                   
Pre-exponential factor:  3.6749E-02     Damping type 0  Scale factor  1.00    
Index t1  t2   j      rho        alpha        C6  etc.
   1  00  00   0    1.963800    3.960000   11.65    

                                                                                
                                                                                
 Molecule  1  urea1               
 Molecule  2  urea2               
 Molecule  3  urea3               
 Molecule  4  urea4               
                        es          er        disp      total
Electrostatic energy      -310.91196934 kJ/mol 
Repulsion energy           164.98074156 kJ/mol 
Induction energy             0.00000000 kJ/mol 
Dispersion energy         -194.03201579 kJ/mol 
Total                     -339.96324356 kJ/mol 
Unrecognized command END             
 Current input line is:
     End   
     *
