    4
Minimum  Converged. Energy =       -0.0053006515  Hartree
F    0.0000000   0.0000000   0.0000000
H    0.0000000   0.0000000   0.9168080
F    0.5837225   0.0000000   2.8081716
H    1.4982703  -0.0000000   2.8725083
