   12
Minimum 1 Energy = -95.029567 kJ/mol
O    1.4582625   1.5189590  -0.7306030
H    1.2703410   0.6622968  -0.3471356
H    2.3233102   1.7491168  -0.3915577
O   -0.9578772  -2.6686386  -0.4732237
H   -1.1891055  -3.4457439   0.0355715
H   -0.8695867  -2.9874067  -1.3714573
O   -0.9350179   1.8213953   0.5934905
H   -0.1300053   1.9413074   0.0896971
H   -1.6223612   2.1907170   0.0390606
O    0.4628006  -0.5998402   0.6615051
H   -0.0354694  -1.3173692   0.2702110
H   -0.1941661   0.0663542   0.8635239
   12
Minimum 2 Energy = -116.590619 kJ/mol
O    1.4760226   1.2153161   0.2042694
H    2.3634010   1.2048789  -0.1544539
H    1.3565633   0.3407686   0.5745773
O   -1.3916496  -1.2746897  -0.3685632
H   -1.3573475  -0.3402166  -0.5730508
H   -1.6763131  -1.6883851  -1.1834588
O   -1.0088840   1.3685240  -0.8981404
H   -0.1123457   1.3984457  -0.5641411
H   -1.4111882   2.1760707  -0.5783725
O    0.9245108  -1.3091500   1.0624341
H    0.1131290  -1.3989965   0.5626151
H    0.7241050  -1.6925688   1.9162838
   12
Minimum 3 Energy = -85.452734 kJ/mol
O    1.4672991   1.3444508   0.6416066
H    1.7182242   1.5522736   1.5416500
H    2.0386365   1.8900461   0.1011151
O   -1.4672990  -1.3444522  -0.6416058
H   -1.7182241  -1.5522745  -1.5416493
H   -2.0386347  -1.8900497  -0.1011147
O   -1.2569307   1.3537198   0.0378456
H   -1.3895410   0.4377613  -0.2064213
H   -0.3271917   1.4111668   0.2581115
O    1.2569309  -1.3537206  -0.0378465
H    1.3895410  -0.4377624   0.2064215
H    0.3271917  -1.4111677  -0.2581118
   12
Minimum 4 Energy = -93.677782 kJ/mol
O    1.2016397   0.9590942   1.3861835
H    1.7912932   1.6868624   1.1889680
H    1.3908347   0.3072595   0.7112400
O   -1.2158819  -0.9625051  -1.3234883
H   -1.5471423  -0.4699695  -2.0744258
H   -1.9506154  -1.5143585  -1.0554281
O   -1.4646663   0.9732553   0.6573767
H   -1.3511054   0.3028571  -0.0163458
H   -0.5996149   1.0599584   1.0578771
O    1.4737516  -0.8830653  -0.6169510
H    0.5686765  -0.9639387  -0.9178336
H    1.7794959  -1.7859913  -0.5304824
   12
Minimum 5 Energy = -100.505135 kJ/mol
O    1.5111371   1.1633101   0.4944923
H    2.3433314   1.5923033   0.2953709
H    1.4846541   0.4070991  -0.0917461
O   -1.0000833  -1.3319391   1.0980519
H   -0.3799914  -1.4720088   0.3824414
H   -0.4507437  -1.2322494   1.8755606
O   -1.1704628   1.0395977  -0.3575656
H   -0.3941871   1.4236241   0.0500514
H   -1.4470401   0.3545116   0.2510343
O    0.5648705  -0.8507671  -1.2058442
H   -0.1156094  -0.1808638  -1.1394477
H    0.4600012  -1.2130025  -2.0856281
   12
Minimum 6 Energy = -93.063993 kJ/mol
O    0.7095244   2.0929792   0.3567375
H    1.3005581   2.7128268  -0.0706966
H    0.7798009   1.2945441  -0.1665162
O    0.1060158  -0.3149388  -0.9288362
H   -0.6739098  -0.0629328  -0.4344265
H   -0.2191974  -0.5077434  -1.8082080
O   -1.7821573   0.9220824   0.6084062
H   -2.0910839   0.8096650   1.5073826
H   -1.0599797   1.5463357   0.6791099
O    0.9429376  -2.7801178  -0.0327582
H    0.6630411  -1.9114875  -0.3214991
H    1.6765787  -2.6116284   0.5585234
